glourb_floods – text_analysis
…
Code

termes_thematiques=tidy(topic_model, matrix="beta") %>% 
  group_by(topic) %>% 
  slice_max(beta,n=30) %>%  
  mutate(rank=row_number()) %>% 
  arrange(topic,desc(beta)) %>% 
  ungroup()
termes_thematiques

# A tibble: 180 × 4
   topic term       beta  rank
   <int> <chr>     <dbl> <int>
 1     1 area     0.0149     1
 2     1 rain     0.0146     2
 3     1 cause    0.0145     3
 4     1 heavy    0.0138     4
 5     1 rainfall 0.0131     5
 6     1 record   0.0129     6
 7     1 water    0.0129     7
 8     1 damage   0.0125     8
 9     1 occur    0.0117     9
10     1 hour     0.0114    10
# ℹ 170 more rows
…
