glourb_floods – text_analysis
…
Code

termes_thematiques=tidy(topic_model, matrix="beta") %>% 
  group_by(topic) %>% 
  slice_max(beta,n=30) %>%  
  mutate(rank=row_number()) %>% 
  arrange(topic,desc(beta)) %>% 
  ungroup()
termes_thematiques

# A tibble: 180 × 4
   topic term     beta  rank
   <int> <chr>   <dbl> <int>
 1     1 water  0.0154     1
 2     1 cause  0.0153     2
 3     1 area   0.0151     3
 4     1 river  0.0148     4
 5     1 person 0.0147     5
 6     1 damage 0.0146     6
 7     1 rain   0.0144     7
 8     1 affect 0.0140     8
 9     1 heavy  0.0138     9
10     1 occur  0.0137    10
# ℹ 170 more rows
…
