glourb_floods
…
readRDS("data/wp_pages.RDS") %>% 
  group_by(local) %>% 
  summarise(meanlength=mean(length,na.rm=TRUE))

# A tibble: 2 × 2
  local meanlength
  <lgl>      <dbl>
1 FALSE      3159.
2 TRUE       6911.

Code

tib

# A tibble: 24 × 3
   ntotcat class_name       n
   <fct>   <fct>        <int>
 1 (1,8]   anticipation    28
 2 (1,8]   damage        1032
 3 (1,8]   governance     211
 4 (1,8]   hydrology      748
 5 (1,8]   relief         493
 6 (1,8]   weather       1547
 7 (8,17]  anticipation    29
 8 (8,17]  damage        1741
 9 (8,17]  governance     677
10 (8,17]  hydrology     1552
# ℹ 14 more rows
…
